{
    "applications": {
        "CatalyserMockup": {
            "applicationId": "mOC5xD5sAZQC7FP9Pb4ZAziuDGz7Qrricq6t684Q", 
            "masterKey": "v8Aze59tNqlONbZZv9L5OzYRmaURT1hQlqeuE86q"
        }, 
        "_default": {
            "link": "CatalyserMockup"
        }
    }, 
    "global": {
        "parseVersion": "1.3.0"
    }
}